  0
SECTION
  2
HEADER
  9
$ACADVER
  1
AC1009
  9
$INSBASE
 10
0.0
 20
0.0
 30
0.0
  9
$EXTMIN
 10
0.0
 20
0.0
 30
0.0
  9
$EXTMAX
 10
0.0
 20
0.0
 30
0.0
  0
ENDSEC
  0
SECTION
  2
TABLES
  0
TABLE
  2
VPORT
 70
0
  0
ENDTAB
  0
TABLE
  2
LTYPE
 70
1
  0
LTYPE
  2
CONTINUOUS
 70
0
  3
Solid line
 72
65
 73
0
 40
0.0
  0
ENDTAB
  0
TABLE
  2
LAYER
 70
1
  0
LAYER
  2
0
 70
64
 62
7
  6
continuous
  0
ENDTAB
  0
TABLE
  2
STYLE
 70
1
  0
STYLE
  2
STANDARD
 70
0
 40
0
 41
1.0
 50
0.0
 71
0
 42
1
 3
ARIAL.TTF
 4

  0
ENDTAB
  0
TABLE
  2
VIEW
 70
0
  0
ENDTAB
  0
ENDSEC
  0
SECTION
  2
BLOCKS
  0
BLOCK
  8
0
  2
CHAMFER
 70
0
 10
0.0
 20
0.0
 30
0.0
  3
CHAMFER
  0
LINE
  8
0
 62
0
 10
38.1
 20
-32.825183
 30
0.0
 11
38.1
 21
-115.454781
 31
0.0
  0
LINE
  8
0
 62
0
 10
38.1
 20
-32.825183
 30
0.0
 11
19.05
 21
-13.775183
 31
0.0
  0
LINE
  8
0
 62
0
 10
38.1
 20
-115.454781
 30
0.0
 11
-38.1
 21
-115.454781
 31
0.0
  0
LINE
  8
0
 62
0
 10
-19.05
 20
-13.775183
 30
0.0
 11
19.05
 21
-13.775183
 31
0.0
  0
LINE
  8
0
 62
0
 10
-38.1
 20
-115.454781
 30
0.0
 11
-38.1
 21
-32.825183
 31
0.0
  0
LINE
  8
0
 62
0
 10
-38.1
 20
-32.825183
 30
0.0
 11
-19.05
 21
-13.775183
 31
0.0
  0
ARC
  8
0
 62
0
 10
-16.662399
 20
-38.1
 30
0.0
 40
6.35
 50
-0.0
 51
-180.0
  0
LINE
  8
0
 62
0
 10
-23.012399
 20
-38.1
 30
0.0
 11
-23.012399
 21
-85.725
 31
0.0
  0
ARC
  8
0
 62
0
 10
-16.662399
 20
-85.725
 30
0.0
 40
6.35
 50
-180.0
 51
0.0
  0
LINE
  8
0
 62
0
 10
-10.312399
 20
-38.1
 30
0.0
 11
-10.312399
 21
-85.725
 31
0.0
  0
CIRCLE
  8
0
 62
0
 10
-8.96220597735e-12
 20
-85.725
 30
0.0
 40
4.7625
  0
CIRCLE
  8
0
 62
0
 10
-4.66034710822e-12
 20
-47.625
 30
0.0
 40
4.7625
  0
ENDBLK
  0
ENDSEC
  0
SECTION
  2
ENTITIES
  0
INSERT
  2
CHAMFER
  8
0
 62
0
 10
0.0
 20
0.0
 30
0.0
  0
ENDSEC
  0
EOF
